{
  "event": {
    "created": "2023-07-16T07:00:27.209880+00:00",
    "id": "6509079983816704",
    "log": {
      "created": "2023-07-16T07:00:27.040558+00:00",
      "errors": [],
      "id": "5251732439302144",
      "invoice": {
        "amount": 29355,
        "brcode": "00020101021226890014br.gov.bcb.pix2567invoice-h.sandbox.starkbank.com/v2/bd693cd9ccad43c3ab63762426ee57765204000053039865802BR5925Stark Bank S.A. - Institu6009Sao Paulo62070503***6304C614",
        "created": "2023-07-16T06:55:51.961126+00:00",
        "descriptions": [],
        "discountAmount": 0,
        "discounts": [],
        "due": "2023-07-17T01:55:51+00:00",
        "expiration": 5097600,
        "fee": 0,
        "fine": 5,
        "fineAmount": 0,
        "id": "5377746913984512",
        "interest": 2.5,
        "interestAmount": 0,
        "link": "https://challenge238425.sandbox.starkbank.com/invoicelink/bd693cd9ccad43c3ab63762426ee5776",
        "name": "Ian Humes",
        "nominalAmount": 29355,
        "pdf": "https://sandbox.api.starkbank.com/v2/invoice/bd693cd9ccad43c3ab63762426ee5776.pdf",
        "rules": [
          {
            "key": "allowedTaxIds",
            "value": [
              "12.800.297/0001-59"
            ]
          }
        ],
        "status": "paid",
        "tags": [
          "scheduled",
          "e11581339202307160700h7c4jlh9uag"
        ],
        "taxId": "12.800.297/0001-59",
        "transactionIds": [
          "31677471362495712488139939184773"
        ],
        "updated": "2023-07-16T07:00:27.040613+00:00"
      },
      "type": "credited"
    },
    "subscription": "invoice",
    "workspaceId": "5874649409781760"
  }
}
